{
    "page": 1,
    "limit": 5,
    "total": 7,
    "total_pages": 2,
    "has_next": true,
    "has_prev": false,
    "next_page": 2,
    "prev_page": null,
    "items": [
        {
            "id": 7,
            "user_id": 2,
            "uav_id": 1,
            "mission_name": "Test Mission 6",
            "schedule": "2026-03-12 14:09:00",
            "is_recurring": false,
            "status": "Waiting",
            "timestamp": "2026-03-12T14:07:53.736503+07:00",
            "deleted_at": null,
            "waypoint_count": 2,
            "uav": {
                "id": 1,
                "owner_id": 2,
                "serial_number": "SN-001",
                "name": "Falcon-1",
                "model": "XF-200",
                "firmware_version": "1.0.0",
                "camera_spec": "4K",
                "image_url": null,
                "max_range_meter": 5000,
                "max_flight_time_min": 45,
                "is_active": true,
                "created_at": "2026-03-12T13:24:26.351086+07:00",
                "status": null,
                "dockings": null
            }
        },
        {
            "id": 6,
            "user_id": 2,
            "uav_id": 1,
            "mission_name": "Test Mission 6",
            "schedule": "2026-03-12 14:05:00",
            "is_recurring": false,
            "status": "Waiting",
            "timestamp": "2026-03-12T14:02:17.408246+07:00",
            "deleted_at": null,
            "waypoint_count": 1,
            "uav": {
                "id": 1,
                "owner_id": 2,
                "serial_number": "SN-001",
                "name": "Falcon-1",
                "model": "XF-200",
                "firmware_version": "1.0.0",
                "camera_spec": "4K",
                "image_url": null,
                "max_range_meter": 5000,
                "max_flight_time_min": 45,
                "is_active": true,
                "created_at": "2026-03-12T13:24:26.351086+07:00",
                "status": null,
                "dockings": null
            }
        },
        {
            "id": 5,
            "user_id": 2,
            "uav_id": 1,
            "mission_name": "Test Mission 5",
            "schedule": "2026-03-12 13:46:00",
            "is_recurring": false,
            "status": "Waiting",
            "timestamp": "2026-03-12T13:44:51.672428+07:00",
            "deleted_at": null,
            "waypoint_count": 1,
            "uav": {
                "id": 1,
                "owner_id": 2,
                "serial_number": "SN-001",
                "name": "Falcon-1",
                "model": "XF-200",
                "firmware_version": "1.0.0",
                "camera_spec": "4K",
                "image_url": null,
                "max_range_meter": 5000,
                "max_flight_time_min": 45,
                "is_active": true,
                "created_at": "2026-03-12T13:24:26.351086+07:00",
                "status": null,
                "dockings": null
            }
        },
        {
            "id": 4,
            "user_id": 2,
            "uav_id": 1,
            "mission_name": "Test Mission 3",
            "schedule": "2026-03-12 13:40:00",
            "is_recurring": false,
            "status": "Waiting",
            "timestamp": "2026-03-12T13:38:52.731386+07:00",
            "deleted_at": null,
            "waypoint_count": 1,
            "uav": {
                "id": 1,
                "owner_id": 2,
                "serial_number": "SN-001",
                "name": "Falcon-1",
                "model": "XF-200",
                "firmware_version": "1.0.0",
                "camera_spec": "4K",
                "image_url": null,
                "max_range_meter": 5000,
                "max_flight_time_min": 45,
                "is_active": true,
                "created_at": "2026-03-12T13:24:26.351086+07:00",
                "status": null,
                "dockings": null
            }
        },
        {
            "id": 3,
            "user_id": 2,
            "uav_id": 1,
            "mission_name": "Test Mission 3",
            "schedule": "2026-03-12 13:37:00",
            "is_recurring": false,
            "status": "Waiting",
            "timestamp": "2026-03-12T13:35:31.348385+07:00",
            "deleted_at": null,
            "waypoint_count": 1,
            "uav": {
                "id": 1,
                "owner_id": 2,
                "serial_number": "SN-001",
                "name": "Falcon-1",
                "model": "XF-200",
                "firmware_version": "1.0.0",
                "camera_spec": "4K",
                "image_url": null,
                "max_range_meter": 5000,
                "max_flight_time_min": 45,
                "is_active": true,
                "created_at": "2026-03-12T13:24:26.351086+07:00",
                "status": null,
                "dockings": null
            }
        }
    ]
}